%!PS-Adobe-2.0 EPSF-1.2
%%BoundingBox: 0 0 157 72
%%Title: C:\work\JohnSiefert\HardWareCad\eagleUp\cicle.eps
%%Creator: SketchUp 3.0.00
%%CreationDate:  4/10/2015 12:57 am
0.557 0.608 0.635 setrgbcolor
48.356 17.493 moveto
51.417 19.410 lineto
54.838 20.752 lineto
58.432 21.472 lineto
62.018 21.550 lineto
65.423 20.982 lineto
68.474 19.787 lineto
70.998 18.002 lineto
72.830 15.696 lineto
73.813 12.969 lineto
73.815 9.964 lineto
72.752 6.869 lineto
70.616 3.912 lineto
67.497 1.346 lineto
64.774 0.000 lineto
48.863 0.000 lineto
47.260 0.816 lineto
44.803 3.250 lineto
43.454 6.136 lineto
43.238 9.220 lineto
44.082 12.266 lineto
45.847 15.075 lineto
closepath
fill
0.132 setlinewidth
0.000 0.000 0.000 setrgbcolor
72.830 15.696 moveto
70.998 18.002 lineto
stroke
70.998 18.002 moveto
68.474 19.787 lineto
stroke
68.474 19.787 moveto
65.423 20.982 lineto
stroke
65.423 20.982 moveto
62.018 21.550 lineto
stroke
62.018 21.550 moveto
58.432 21.472 lineto
stroke
58.432 21.472 moveto
54.838 20.752 lineto
stroke
54.838 20.752 moveto
51.417 19.410 lineto
stroke
51.417 19.410 moveto
48.356 17.493 lineto
stroke
48.356 17.493 moveto
45.847 15.075 lineto
stroke
45.847 15.075 moveto
44.082 12.266 lineto
stroke
44.082 12.266 moveto
43.238 9.220 lineto
stroke
43.238 9.220 moveto
43.454 6.136 lineto
stroke
43.454 6.136 moveto
44.803 3.250 lineto
stroke
44.803 3.250 moveto
47.260 0.816 lineto
stroke
47.260 0.816 moveto
48.863 0.000 lineto
stroke
64.774 0.000 moveto
67.497 1.346 lineto
stroke
67.497 1.346 moveto
70.616 3.912 lineto
stroke
70.616 3.912 moveto
72.752 6.869 lineto
stroke
72.752 6.869 moveto
73.815 9.964 lineto
stroke
73.815 9.964 moveto
73.813 12.969 lineto
stroke
73.813 12.969 moveto
72.830 15.696 lineto
stroke
