G75*
G70*
%OFA0B0*%
%FSLAX24Y24*%
%IPPOS*%
%LPD*%
%AMOC8*
5,1,8,0,0,1.08239X$1,22.5*
%
%ADD10R,0.0413X0.0236*%
%ADD11R,0.0591X0.0413*%
%ADD12C,0.0600*%
%ADD13R,0.1600X0.1600*%
%ADD14R,0.1095X0.1095*%
%ADD15C,0.0560*%
%ADD16C,0.1266*%
%ADD17C,0.0600*%
%ADD18C,0.0310*%
%ADD19C,0.0080*%
%ADD20C,0.0320*%
%ADD21C,0.0240*%
D10*
X017618Y009179D03*
X017618Y009612D03*
X017618Y010045D03*
X017618Y010478D03*
X017618Y010911D03*
X017618Y011344D03*
X017618Y011777D03*
X017618Y012211D03*
D11*
X018614Y013104D03*
X015307Y013104D03*
X015307Y007750D03*
X018614Y007750D03*
D12*
X014068Y021668D03*
X013068Y021768D03*
X012068Y021668D03*
X011068Y021768D03*
X010068Y021668D03*
X009068Y021768D03*
D13*
X005573Y011683D03*
D14*
X005573Y016683D03*
X005573Y006683D03*
D15*
X020688Y010305D03*
X020688Y011290D03*
X020688Y012077D03*
X020688Y013061D03*
D16*
X021633Y013967D03*
X021633Y009400D03*
D17*
X016360Y021675D02*
X016589Y022229D01*
X015665Y022612D02*
X015436Y022058D01*
X007666Y022063D02*
X007437Y022617D01*
X006513Y022235D02*
X006742Y021680D01*
X005322Y020825D02*
X004961Y021304D01*
X004163Y020702D02*
X004524Y020223D01*
X002205Y006134D02*
X001708Y005799D01*
X002267Y004970D02*
X002764Y005305D01*
D18*
X007613Y004473D03*
X008113Y004473D03*
X008613Y004473D03*
X009113Y004473D03*
X009613Y004473D03*
X010113Y004473D03*
X010613Y004473D03*
X011113Y004473D03*
X011613Y004473D03*
X012113Y004473D03*
X012613Y004473D03*
X013113Y004473D03*
X013613Y004473D03*
X014113Y004473D03*
X014613Y004473D03*
X015113Y004473D03*
X015113Y003973D03*
X015113Y002973D03*
X015113Y002473D03*
X015113Y001973D03*
X017953Y005603D03*
X017733Y006493D03*
X017323Y006873D03*
X016943Y006513D03*
X016933Y007303D03*
X017723Y007263D03*
X018253Y008183D03*
X017823Y008703D03*
X017123Y009133D03*
X016283Y008273D03*
X015433Y009483D03*
X015023Y009833D03*
X014433Y009883D03*
X014123Y010963D03*
X013023Y010963D03*
X011873Y010463D03*
X011223Y010353D03*
X011913Y009123D03*
X010993Y008943D03*
X009633Y008043D03*
X013823Y008073D03*
X016223Y010253D03*
X017103Y011113D03*
X016203Y011943D03*
X014753Y012913D03*
X014403Y012603D03*
X013943Y013643D03*
X012903Y014083D03*
X011923Y013673D03*
X011663Y012893D03*
X012403Y012883D03*
X012013Y015443D03*
X012773Y015673D03*
X012123Y016393D03*
X011513Y017093D03*
X011163Y016873D03*
X011153Y016093D03*
X013933Y016263D03*
X014793Y016253D03*
X015233Y016003D03*
X016423Y014113D03*
X019193Y014613D03*
X019233Y015253D03*
X018523Y017073D03*
X013973Y019513D03*
X012573Y020303D03*
X009913Y018703D03*
X008153Y019273D03*
X007663Y019433D03*
X006853Y019323D03*
X006033Y020343D03*
X006423Y020713D03*
X019003Y011083D03*
X019563Y011033D03*
X019323Y011453D03*
X019003Y010693D03*
X018993Y010243D03*
X018883Y009343D03*
X018833Y008783D03*
X019403Y008913D03*
X020143Y008863D03*
X021363Y008023D03*
X020283Y006493D03*
X019613Y005423D03*
X018873Y007263D03*
X019943Y012653D03*
D19*
X017881Y004125D02*
X004034Y004125D01*
X003954Y004203D02*
X017849Y004203D01*
X017816Y004282D02*
X003873Y004282D01*
X003792Y004361D02*
X017784Y004361D01*
X017753Y004436D02*
X017888Y004109D01*
X018138Y003859D01*
X018465Y003723D01*
X018657Y003723D01*
X018148Y003283D01*
X017132Y002588D01*
X016043Y002013D01*
X014933Y001581D01*
X014933Y003983D01*
X004180Y003983D01*
X003617Y004531D01*
X003141Y005113D01*
X003160Y005143D01*
X003192Y005307D01*
X003159Y005471D01*
X003066Y005609D01*
X002926Y005702D01*
X002762Y005734D01*
X002687Y005718D01*
X002562Y005913D01*
X002601Y005972D01*
X002633Y006136D01*
X002600Y006300D01*
X002506Y006439D01*
X002367Y006531D01*
X002203Y006563D01*
X002155Y006553D01*
X001628Y007625D01*
X001214Y008785D01*
X000935Y009984D01*
X000795Y011208D01*
X000795Y011235D01*
X000818Y011179D01*
X001068Y010929D01*
X001395Y010793D01*
X001750Y010793D01*
X002077Y010929D01*
X002327Y011179D01*
X002462Y011506D01*
X002462Y011860D01*
X002327Y012188D01*
X002077Y012438D01*
X001750Y012573D01*
X001395Y012573D01*
X001068Y012438D01*
X000818Y012188D01*
X000795Y012132D01*
X000795Y012439D01*
X000935Y013662D01*
X001214Y014862D01*
X001628Y016022D01*
X002171Y017127D01*
X002837Y018163D01*
X003617Y019116D01*
X004356Y019834D01*
X004382Y019819D01*
X004548Y019795D01*
X004710Y019837D01*
X004752Y019869D01*
X004086Y019203D01*
X003993Y019110D01*
X003993Y011990D01*
X003993Y011857D01*
X004243Y011607D01*
X004336Y011513D01*
X004653Y011513D01*
X004653Y010834D01*
X004723Y010763D01*
X006422Y010763D01*
X006492Y010834D01*
X006492Y012533D01*
X006422Y012603D01*
X004723Y012603D01*
X004653Y012533D01*
X004653Y011833D01*
X004469Y011833D01*
X004312Y011990D01*
X004312Y018977D01*
X005889Y020553D01*
X006194Y020553D01*
X006267Y020480D01*
X006368Y020438D01*
X006477Y020438D01*
X006578Y020480D01*
X006656Y020558D01*
X006697Y020659D01*
X006697Y020768D01*
X006656Y020869D01*
X006578Y020946D01*
X006477Y020988D01*
X006368Y020988D01*
X006267Y020946D01*
X006194Y020873D01*
X005889Y020873D01*
X005756Y020873D01*
X005746Y020863D01*
X005740Y020886D01*
X006490Y021338D01*
X006504Y021324D01*
X006659Y021260D01*
X006826Y021260D01*
X006980Y021324D01*
X007098Y021442D01*
X007162Y021597D01*
X007162Y021651D01*
X007363Y021743D01*
X007407Y021706D01*
X007466Y021670D01*
X007530Y021643D01*
X007597Y021627D01*
X007666Y021622D01*
X007735Y021627D01*
X007797Y021642D01*
X007695Y021888D01*
X007771Y021913D01*
X007871Y021673D01*
X007926Y021706D01*
X007978Y021751D01*
X008023Y021804D01*
X008059Y021863D01*
X008086Y021927D01*
X008102Y021994D01*
X008104Y022021D01*
X008821Y022254D01*
X010028Y022499D01*
X011254Y022604D01*
X012485Y022569D01*
X013704Y022394D01*
X014895Y022081D01*
X015016Y022034D01*
X015016Y021974D01*
X015080Y021820D01*
X015198Y021702D01*
X015352Y021638D01*
X015519Y021638D01*
X015674Y021702D01*
X015728Y021756D01*
X015940Y021674D01*
X015940Y021591D01*
X015970Y021517D01*
X015756Y021303D01*
X014285Y021303D01*
X014306Y021312D01*
X014424Y021430D01*
X014488Y021584D01*
X014488Y021752D01*
X014424Y021906D01*
X014306Y022024D01*
X014152Y022088D01*
X013985Y022088D01*
X013830Y022024D01*
X013712Y021906D01*
X013648Y021752D01*
X013648Y021584D01*
X013712Y021430D01*
X013830Y021312D01*
X013851Y021303D01*
X013759Y021303D01*
X013456Y021607D01*
X013488Y021684D01*
X013488Y021852D01*
X013424Y022006D01*
X013306Y022124D01*
X013152Y022188D01*
X012985Y022188D01*
X012830Y022124D01*
X012712Y022006D01*
X012648Y021852D01*
X012648Y021684D01*
X012712Y021530D01*
X012830Y021412D01*
X012985Y021348D01*
X013152Y021348D01*
X013230Y021380D01*
X013626Y020983D01*
X013759Y020983D01*
X015889Y020983D01*
X015982Y021077D01*
X016194Y021289D01*
X016276Y021255D01*
X016443Y021255D01*
X016598Y021319D01*
X016612Y021333D01*
X017132Y021059D01*
X018148Y020364D01*
X019079Y019558D01*
X019111Y019523D01*
X018820Y019643D01*
X018465Y019643D01*
X018138Y019508D01*
X017888Y019258D01*
X017753Y018930D01*
X017753Y018576D01*
X017888Y018249D01*
X018138Y017999D01*
X018465Y017863D01*
X018820Y017863D01*
X019147Y017999D01*
X019397Y018249D01*
X019532Y018576D01*
X019532Y018930D01*
X019432Y019173D01*
X019912Y018650D01*
X020635Y017654D01*
X021241Y016582D01*
X021720Y015448D01*
X021955Y014648D01*
X021782Y014720D01*
X021483Y014720D01*
X021206Y014605D01*
X020994Y014393D01*
X020879Y014117D01*
X020879Y013817D01*
X020994Y013540D01*
X021206Y013328D01*
X021483Y013214D01*
X021513Y013214D01*
X021300Y013126D01*
X021115Y012941D01*
X021015Y012700D01*
X021015Y012439D01*
X021115Y012197D01*
X021300Y012013D01*
X021541Y011913D01*
X021802Y011913D01*
X022044Y012013D01*
X022228Y012197D01*
X022314Y012405D01*
X022348Y011823D01*
X022300Y010996D01*
X022228Y011169D01*
X022044Y011354D01*
X021802Y011454D01*
X021541Y011454D01*
X021300Y011354D01*
X021115Y011169D01*
X021015Y010928D01*
X021015Y010667D01*
X021115Y010426D01*
X021300Y010241D01*
X021513Y010153D01*
X021483Y010153D01*
X021206Y010038D01*
X020994Y009826D01*
X020879Y009550D01*
X020879Y009250D01*
X020994Y008973D01*
X021206Y008761D01*
X021483Y008647D01*
X021782Y008647D01*
X021861Y008680D01*
X021720Y008199D01*
X021637Y008003D01*
X021637Y008078D01*
X021596Y008179D01*
X021518Y008256D01*
X021417Y008298D01*
X021308Y008298D01*
X021207Y008256D01*
X021129Y008179D01*
X021088Y008078D01*
X021088Y007969D01*
X021129Y007868D01*
X021207Y007790D01*
X021308Y007748D01*
X021417Y007748D01*
X021518Y007790D01*
X021569Y007841D01*
X021241Y007065D01*
X020635Y005993D01*
X019912Y004996D01*
X019532Y004583D01*
X019532Y004790D01*
X019397Y005118D01*
X019147Y005368D01*
X018820Y005503D01*
X018465Y005503D01*
X018138Y005368D01*
X017888Y005118D01*
X017753Y004790D01*
X017753Y004436D01*
X017753Y004439D02*
X003711Y004439D01*
X003630Y004518D02*
X017753Y004518D01*
X017753Y004596D02*
X003563Y004596D01*
X003499Y004675D02*
X017753Y004675D01*
X017753Y004753D02*
X003435Y004753D01*
X003371Y004832D02*
X017770Y004832D01*
X017802Y004910D02*
X003306Y004910D01*
X003242Y004989D02*
X017835Y004989D01*
X017867Y005067D02*
X003178Y005067D01*
X003161Y005146D02*
X017916Y005146D01*
X017995Y005225D02*
X016620Y005225D01*
X016611Y005216D02*
X016690Y005295D01*
X016732Y005398D01*
X016732Y005509D01*
X016690Y005612D01*
X016611Y005691D01*
X016508Y005733D01*
X016397Y005733D01*
X016294Y005691D01*
X016215Y005612D01*
X016173Y005509D01*
X016173Y005398D01*
X016215Y005295D01*
X016294Y005216D01*
X016397Y005173D01*
X016508Y005173D01*
X016611Y005216D01*
X016693Y005303D02*
X017139Y005303D01*
X017187Y005283D02*
X017298Y005283D01*
X017401Y005326D01*
X017480Y005405D01*
X017522Y005508D01*
X017522Y005619D01*
X017480Y005722D01*
X017401Y005801D01*
X017298Y005843D01*
X017187Y005843D01*
X017084Y005801D01*
X017005Y005722D01*
X016963Y005619D01*
X016963Y005508D01*
X017005Y005405D01*
X017084Y005326D01*
X017187Y005283D01*
X017346Y005303D02*
X018074Y005303D01*
X018007Y005328D02*
X018108Y005370D01*
X018186Y005448D01*
X018227Y005549D01*
X018227Y005658D01*
X018186Y005759D01*
X018108Y005836D01*
X018007Y005878D01*
X017898Y005878D01*
X017797Y005836D01*
X017719Y005759D01*
X017678Y005658D01*
X017678Y005549D01*
X017719Y005448D01*
X017797Y005370D01*
X017898Y005328D01*
X018007Y005328D01*
X018120Y005382D02*
X018172Y005382D01*
X018191Y005460D02*
X018361Y005460D01*
X018223Y005539D02*
X019363Y005539D01*
X019379Y005579D02*
X019338Y005478D01*
X019338Y005369D01*
X019379Y005268D01*
X019457Y005190D01*
X019558Y005148D01*
X019667Y005148D01*
X019768Y005190D01*
X019846Y005268D01*
X019887Y005369D01*
X019887Y005478D01*
X019846Y005579D01*
X019768Y005656D01*
X019667Y005698D01*
X019558Y005698D01*
X019457Y005656D01*
X019379Y005579D01*
X019417Y005617D02*
X018227Y005617D01*
X018212Y005696D02*
X019552Y005696D01*
X019673Y005696D02*
X020420Y005696D01*
X020477Y005774D02*
X018170Y005774D01*
X018069Y005853D02*
X020534Y005853D01*
X020591Y005931D02*
X002574Y005931D01*
X002600Y005853D02*
X017836Y005853D01*
X017735Y005774D02*
X017427Y005774D01*
X017491Y005696D02*
X017693Y005696D01*
X017678Y005617D02*
X017522Y005617D01*
X017522Y005539D02*
X017682Y005539D01*
X017714Y005460D02*
X017503Y005460D01*
X017457Y005382D02*
X017785Y005382D01*
X017028Y005382D02*
X016726Y005382D01*
X016732Y005460D02*
X016982Y005460D01*
X016963Y005539D02*
X016720Y005539D01*
X016685Y005617D02*
X016963Y005617D01*
X016994Y005696D02*
X016599Y005696D01*
X016306Y005696D02*
X002935Y005696D01*
X003054Y005617D02*
X016220Y005617D01*
X016185Y005539D02*
X003113Y005539D01*
X003161Y005460D02*
X016173Y005460D01*
X016179Y005382D02*
X003177Y005382D01*
X003192Y005303D02*
X016212Y005303D01*
X016285Y005225D02*
X003176Y005225D01*
X002651Y005774D02*
X017058Y005774D01*
X018924Y005460D02*
X019338Y005460D01*
X019338Y005382D02*
X019114Y005382D01*
X019211Y005303D02*
X019365Y005303D01*
X019422Y005225D02*
X019290Y005225D01*
X019369Y005146D02*
X020020Y005146D01*
X019963Y005067D02*
X019418Y005067D01*
X019450Y004989D02*
X019905Y004989D01*
X019833Y004910D02*
X019483Y004910D01*
X019515Y004832D02*
X019761Y004832D01*
X019689Y004753D02*
X019532Y004753D01*
X019532Y004675D02*
X019616Y004675D01*
X019544Y004596D02*
X019532Y004596D01*
X019803Y005225D02*
X020077Y005225D01*
X020134Y005303D02*
X019860Y005303D01*
X019887Y005382D02*
X020192Y005382D01*
X020249Y005460D02*
X019887Y005460D01*
X019862Y005539D02*
X020306Y005539D01*
X020363Y005617D02*
X019808Y005617D01*
X020645Y006010D02*
X002609Y006010D01*
X002624Y006089D02*
X004905Y006089D01*
X004905Y006086D02*
X004975Y006016D01*
X006170Y006016D01*
X006240Y006086D01*
X006240Y007281D01*
X006170Y007351D01*
X004975Y007351D01*
X004905Y007281D01*
X004905Y006086D01*
X004905Y006167D02*
X002627Y006167D01*
X002611Y006246D02*
X004905Y006246D01*
X004905Y006324D02*
X002584Y006324D01*
X002531Y006403D02*
X004905Y006403D01*
X004905Y006481D02*
X002442Y006481D01*
X002218Y006560D02*
X004905Y006560D01*
X004905Y006638D02*
X002113Y006638D01*
X002152Y006560D02*
X002189Y006560D01*
X002075Y006717D02*
X004905Y006717D01*
X004905Y006795D02*
X002036Y006795D01*
X001998Y006874D02*
X004905Y006874D01*
X004905Y006952D02*
X001959Y006952D01*
X001920Y007031D02*
X004905Y007031D01*
X004905Y007110D02*
X001882Y007110D01*
X001843Y007188D02*
X004905Y007188D01*
X004905Y007267D02*
X001804Y007267D01*
X001766Y007345D02*
X004970Y007345D01*
X006175Y007345D02*
X018609Y007345D01*
X018598Y007318D02*
X018598Y007209D01*
X018639Y007108D01*
X018717Y007030D01*
X018818Y006988D01*
X018927Y006988D01*
X019028Y007030D01*
X019106Y007108D01*
X019147Y007209D01*
X019147Y007318D01*
X019106Y007419D01*
X019029Y007495D01*
X019029Y008006D01*
X018959Y008077D01*
X018506Y008077D01*
X018527Y008129D01*
X018527Y008238D01*
X018486Y008339D01*
X018408Y008416D01*
X018307Y008458D01*
X018198Y008458D01*
X018097Y008416D01*
X018019Y008339D01*
X017978Y008238D01*
X017978Y008129D01*
X018019Y008028D01*
X018097Y007950D01*
X018198Y007908D01*
X018199Y007908D01*
X018199Y007494D01*
X018269Y007423D01*
X018644Y007423D01*
X018639Y007419D01*
X018598Y007318D01*
X018598Y007267D02*
X006240Y007267D01*
X006240Y007188D02*
X018606Y007188D01*
X018639Y007110D02*
X006240Y007110D01*
X006240Y007031D02*
X018716Y007031D01*
X019029Y007031D02*
X021222Y007031D01*
X021260Y007110D02*
X019106Y007110D01*
X019139Y007188D02*
X021293Y007188D01*
X021326Y007267D02*
X019147Y007267D01*
X019136Y007345D02*
X021359Y007345D01*
X021393Y007424D02*
X019101Y007424D01*
X019029Y007502D02*
X021426Y007502D01*
X021459Y007581D02*
X019029Y007581D01*
X019029Y007659D02*
X021492Y007659D01*
X021525Y007738D02*
X019029Y007738D01*
X019029Y007816D02*
X021181Y007816D01*
X021118Y007895D02*
X019029Y007895D01*
X019029Y007974D02*
X021088Y007974D01*
X021088Y008052D02*
X018984Y008052D01*
X019049Y008333D02*
X018916Y008333D01*
X018546Y008333D01*
X018453Y008427D01*
X018453Y008427D01*
X018080Y008799D01*
X018097Y008758D01*
X018097Y008649D01*
X018056Y008548D01*
X017978Y008470D01*
X017877Y008428D01*
X017768Y008428D01*
X017667Y008470D01*
X017589Y008548D01*
X017548Y008649D01*
X017548Y008758D01*
X017589Y008859D01*
X017667Y008936D01*
X017678Y008941D01*
X017362Y008941D01*
X017340Y008962D01*
X017278Y008900D01*
X017177Y008858D01*
X017068Y008858D01*
X016967Y008900D01*
X016889Y008978D01*
X016848Y009079D01*
X016848Y009188D01*
X016889Y009289D01*
X016963Y009362D01*
X016963Y010360D01*
X017056Y010453D01*
X017241Y010638D01*
X017291Y010638D01*
X017291Y010646D01*
X017340Y010695D01*
X017291Y010744D01*
X017291Y011079D01*
X017326Y011114D01*
X017325Y011114D01*
X017299Y011140D01*
X017281Y011172D01*
X017271Y011208D01*
X017271Y011325D01*
X017599Y011325D01*
X017599Y011363D01*
X017271Y011363D01*
X017271Y011481D01*
X017281Y011517D01*
X017299Y011548D01*
X017325Y011575D01*
X017326Y011575D01*
X017291Y011610D01*
X017291Y011945D01*
X017340Y011994D01*
X017291Y012043D01*
X017291Y012378D01*
X017362Y012449D01*
X017874Y012449D01*
X017945Y012378D01*
X017945Y012371D01*
X019189Y012371D01*
X019322Y012371D01*
X019689Y012003D01*
X019782Y011910D01*
X019782Y011202D01*
X019796Y011189D01*
X019837Y011088D01*
X019837Y010979D01*
X019796Y010878D01*
X019718Y010800D01*
X019617Y010758D01*
X019508Y010758D01*
X019407Y010800D01*
X019329Y010878D01*
X019288Y010979D01*
X019288Y011088D01*
X019325Y011178D01*
X019268Y011178D01*
X019259Y011182D01*
X019277Y011138D01*
X019277Y011029D01*
X019236Y010928D01*
X019196Y010888D01*
X019236Y010849D01*
X019277Y010748D01*
X019277Y010639D01*
X019236Y010538D01*
X019161Y010463D01*
X019226Y010399D01*
X019267Y010298D01*
X019267Y010189D01*
X019226Y010088D01*
X019148Y010010D01*
X019047Y009968D01*
X018938Y009968D01*
X018837Y010010D01*
X018764Y010083D01*
X018429Y010083D01*
X018231Y009885D01*
X018098Y009885D01*
X017945Y009885D01*
X017945Y009877D01*
X017896Y009829D01*
X017945Y009780D01*
X017945Y009772D01*
X018547Y009772D01*
X018680Y009772D01*
X018834Y009618D01*
X018937Y009618D01*
X019038Y009576D01*
X019116Y009499D01*
X019157Y009398D01*
X019157Y009289D01*
X019116Y009188D01*
X019038Y009110D01*
X018937Y009068D01*
X018828Y009068D01*
X018727Y009110D01*
X018649Y009188D01*
X018608Y009289D01*
X018608Y009392D01*
X018547Y009452D01*
X017945Y009452D01*
X017945Y009444D01*
X017896Y009396D01*
X017945Y009347D01*
X017945Y009339D01*
X017993Y009339D01*
X018558Y008775D01*
X018558Y008838D01*
X018599Y008939D01*
X018677Y009016D01*
X018778Y009058D01*
X018887Y009058D01*
X018988Y009016D01*
X019066Y008939D01*
X019106Y008843D01*
X019128Y008865D01*
X019128Y008968D01*
X019169Y009069D01*
X019247Y009146D01*
X019348Y009188D01*
X019457Y009188D01*
X019558Y009146D01*
X019636Y009069D01*
X019677Y008968D01*
X019677Y008859D01*
X019636Y008758D01*
X019558Y008680D01*
X019457Y008638D01*
X019354Y008638D01*
X019049Y008333D01*
X019082Y008366D02*
X021769Y008366D01*
X021746Y008288D02*
X021443Y008288D01*
X021566Y008209D02*
X021723Y008209D01*
X021691Y008131D02*
X021616Y008131D01*
X021637Y008052D02*
X021658Y008052D01*
X021559Y007816D02*
X021544Y007816D01*
X021109Y008131D02*
X018527Y008131D01*
X018527Y008209D02*
X021159Y008209D01*
X021282Y008288D02*
X018507Y008288D01*
X018513Y008366D02*
X018459Y008366D01*
X018435Y008445D02*
X018340Y008445D01*
X018356Y008523D02*
X018031Y008523D01*
X018078Y008602D02*
X018278Y008602D01*
X018199Y008680D02*
X018097Y008680D01*
X018097Y008759D02*
X018121Y008759D01*
X018165Y008445D02*
X017917Y008445D01*
X018046Y008366D02*
X016542Y008366D01*
X016557Y008328D02*
X016516Y008429D01*
X016438Y008506D01*
X016337Y008548D01*
X016228Y008548D01*
X016127Y008506D01*
X016049Y008429D01*
X016008Y008328D01*
X016008Y008219D01*
X016049Y008118D01*
X016127Y008040D01*
X016228Y007998D01*
X016337Y007998D01*
X016438Y008040D01*
X016516Y008118D01*
X016557Y008219D01*
X016557Y008328D01*
X016557Y008288D02*
X017998Y008288D01*
X017978Y008209D02*
X016554Y008209D01*
X016521Y008131D02*
X017978Y008131D01*
X018009Y008052D02*
X016450Y008052D01*
X016115Y008052D02*
X015676Y008052D01*
X015652Y008077D02*
X014962Y008077D01*
X014892Y008006D01*
X014892Y007494D01*
X014962Y007423D01*
X015652Y007423D01*
X015722Y007494D01*
X015722Y008006D01*
X015652Y008077D01*
X015722Y007974D02*
X018073Y007974D01*
X018199Y007895D02*
X015722Y007895D01*
X015722Y007816D02*
X018199Y007816D01*
X018199Y007738D02*
X015722Y007738D01*
X015722Y007659D02*
X018199Y007659D01*
X018199Y007581D02*
X015722Y007581D01*
X015722Y007502D02*
X018199Y007502D01*
X018269Y007424D02*
X015652Y007424D01*
X014961Y007424D02*
X001727Y007424D01*
X001689Y007502D02*
X014892Y007502D01*
X014892Y007581D02*
X001650Y007581D01*
X001616Y007659D02*
X014892Y007659D01*
X014892Y007738D02*
X001588Y007738D01*
X001560Y007816D02*
X009471Y007816D01*
X009477Y007810D02*
X009578Y007768D01*
X009687Y007768D01*
X009788Y007810D01*
X009866Y007888D01*
X009907Y007989D01*
X009907Y008098D01*
X009866Y008199D01*
X009788Y008276D01*
X009687Y008318D01*
X009578Y008318D01*
X009477Y008276D01*
X009399Y008199D01*
X009358Y008098D01*
X009358Y007989D01*
X009399Y007888D01*
X009477Y007810D01*
X009396Y007895D02*
X001532Y007895D01*
X001504Y007974D02*
X009364Y007974D01*
X009358Y008052D02*
X001476Y008052D01*
X001448Y008131D02*
X009371Y008131D01*
X009409Y008209D02*
X001420Y008209D01*
X001392Y008288D02*
X009504Y008288D01*
X009761Y008288D02*
X016008Y008288D01*
X016011Y008209D02*
X009856Y008209D01*
X009894Y008131D02*
X016044Y008131D01*
X016023Y008366D02*
X001364Y008366D01*
X001336Y008445D02*
X016065Y008445D01*
X016167Y008523D02*
X001308Y008523D01*
X001280Y008602D02*
X017567Y008602D01*
X017548Y008680D02*
X001252Y008680D01*
X001224Y008759D02*
X017548Y008759D01*
X017580Y008838D02*
X001202Y008838D01*
X001184Y008916D02*
X016951Y008916D01*
X016882Y008995D02*
X001166Y008995D01*
X001147Y009073D02*
X016850Y009073D01*
X016848Y009152D02*
X001129Y009152D01*
X001111Y009230D02*
X015325Y009230D01*
X015277Y009250D02*
X015378Y009208D01*
X015487Y009208D01*
X015588Y009250D01*
X015666Y009328D01*
X015707Y009429D01*
X015707Y009538D01*
X015666Y009639D01*
X015588Y009716D01*
X015487Y009758D01*
X015378Y009758D01*
X015277Y009716D01*
X015268Y009708D01*
X015297Y009779D01*
X015297Y009888D01*
X015256Y009989D01*
X015178Y010066D01*
X015077Y010108D01*
X014968Y010108D01*
X014867Y010066D01*
X014789Y009989D01*
X014748Y009888D01*
X014748Y009779D01*
X014789Y009678D01*
X014867Y009600D01*
X014968Y009558D01*
X015077Y009558D01*
X015178Y009600D01*
X015187Y009609D01*
X015158Y009538D01*
X015158Y009429D01*
X015199Y009328D01*
X015277Y009250D01*
X015218Y009309D02*
X001093Y009309D01*
X001074Y009387D02*
X015175Y009387D01*
X015158Y009466D02*
X001056Y009466D01*
X001038Y009544D02*
X015160Y009544D01*
X015297Y009780D02*
X016963Y009780D01*
X016963Y009701D02*
X015603Y009701D01*
X015672Y009623D02*
X016963Y009623D01*
X016963Y009544D02*
X015705Y009544D01*
X015707Y009466D02*
X016963Y009466D01*
X016963Y009387D02*
X015690Y009387D01*
X015647Y009309D02*
X016909Y009309D01*
X016865Y009230D02*
X015540Y009230D01*
X014844Y009623D02*
X014522Y009623D01*
X014487Y009608D02*
X014588Y009650D01*
X014666Y009728D01*
X014707Y009829D01*
X014707Y009938D01*
X014666Y010039D01*
X014588Y010116D01*
X014487Y010158D01*
X014378Y010158D01*
X014277Y010116D01*
X014199Y010039D01*
X014158Y009938D01*
X014158Y009829D01*
X014199Y009728D01*
X014277Y009650D01*
X014378Y009608D01*
X014487Y009608D01*
X014343Y009623D02*
X001019Y009623D01*
X001001Y009701D02*
X014225Y009701D01*
X014178Y009780D02*
X000983Y009780D01*
X000965Y009859D02*
X014158Y009859D01*
X014158Y009937D02*
X000946Y009937D01*
X000932Y010016D02*
X014190Y010016D01*
X014254Y010094D02*
X011315Y010094D01*
X011277Y010078D02*
X011378Y010120D01*
X011456Y010198D01*
X011497Y010299D01*
X011497Y010408D01*
X011456Y010509D01*
X011378Y010586D01*
X011277Y010628D01*
X011168Y010628D01*
X011067Y010586D01*
X010989Y010509D01*
X010948Y010408D01*
X000887Y010408D01*
X000896Y010330D02*
X010948Y010330D01*
X010948Y010299D02*
X010989Y010198D01*
X011067Y010120D01*
X011168Y010078D01*
X011277Y010078D01*
X011130Y010094D02*
X000923Y010094D01*
X000914Y010173D02*
X011014Y010173D01*
X010967Y010251D02*
X000905Y010251D01*
X000878Y010487D02*
X010980Y010487D01*
X010948Y010408D02*
X010948Y010299D01*
X011046Y010565D02*
X000869Y010565D01*
X000860Y010644D02*
X017291Y010644D01*
X017312Y010723D02*
X014260Y010723D01*
X014278Y010730D02*
X014356Y010808D01*
X014397Y010909D01*
X014397Y011018D01*
X014356Y011119D01*
X014278Y011196D01*
X014177Y011238D01*
X014068Y011238D01*
X013967Y011196D01*
X013889Y011119D01*
X013848Y011018D01*
X013848Y010909D01*
X013889Y010808D01*
X013967Y010730D01*
X014068Y010688D01*
X014177Y010688D01*
X014278Y010730D01*
X014349Y010801D02*
X017291Y010801D01*
X017291Y010880D02*
X014385Y010880D01*
X014397Y010958D02*
X017291Y010958D01*
X017291Y011037D02*
X014390Y011037D01*
X014357Y011115D02*
X017324Y011115D01*
X017275Y011194D02*
X014281Y011194D01*
X013964Y011194D02*
X013181Y011194D01*
X013178Y011196D02*
X013077Y011238D01*
X012968Y011238D01*
X012867Y011196D01*
X012789Y011119D01*
X012748Y011018D01*
X012748Y010909D01*
X012789Y010808D01*
X012867Y010730D01*
X012968Y010688D01*
X013077Y010688D01*
X013178Y010730D01*
X013256Y010808D01*
X013297Y010909D01*
X013297Y011018D01*
X013256Y011119D01*
X013178Y011196D01*
X013257Y011115D02*
X013888Y011115D01*
X013855Y011037D02*
X013290Y011037D01*
X013297Y010958D02*
X013848Y010958D01*
X013860Y010880D02*
X013285Y010880D01*
X013249Y010801D02*
X013896Y010801D01*
X013985Y010723D02*
X013160Y010723D01*
X012885Y010723D02*
X000851Y010723D01*
X000842Y010801D02*
X001377Y010801D01*
X001187Y010880D02*
X000833Y010880D01*
X000824Y010958D02*
X001039Y010958D01*
X000960Y011037D02*
X000815Y011037D01*
X000806Y011115D02*
X000882Y011115D01*
X000812Y011194D02*
X000797Y011194D01*
X000795Y012136D02*
X000797Y012136D01*
X000795Y012215D02*
X000845Y012215D01*
X000795Y012293D02*
X000924Y012293D01*
X001002Y012372D02*
X000795Y012372D01*
X000796Y012451D02*
X001099Y012451D01*
X001289Y012529D02*
X000805Y012529D01*
X000814Y012608D02*
X003993Y012608D01*
X003993Y012686D02*
X000823Y012686D01*
X000832Y012765D02*
X003993Y012765D01*
X003993Y012843D02*
X000841Y012843D01*
X000850Y012922D02*
X003993Y012922D01*
X003993Y013000D02*
X000859Y013000D01*
X000868Y013079D02*
X003993Y013079D01*
X003993Y013157D02*
X000877Y013157D01*
X000886Y013236D02*
X003993Y013236D01*
X003993Y013314D02*
X000896Y013314D01*
X000904Y013393D02*
X003993Y013393D01*
X003993Y013472D02*
X000914Y013472D01*
X000923Y013550D02*
X003993Y013550D01*
X003993Y013629D02*
X000932Y013629D01*
X000946Y013707D02*
X003993Y013707D01*
X003993Y013786D02*
X000964Y013786D01*
X000982Y013864D02*
X003993Y013864D01*
X003993Y013943D02*
X001001Y013943D01*
X001019Y014021D02*
X003993Y014021D01*
X003993Y014100D02*
X001037Y014100D01*
X001055Y014178D02*
X003993Y014178D01*
X003993Y014257D02*
X001074Y014257D01*
X001092Y014336D02*
X003993Y014336D01*
X003993Y014414D02*
X001110Y014414D01*
X001128Y014493D02*
X003993Y014493D01*
X003993Y014571D02*
X001147Y014571D01*
X001165Y014650D02*
X003993Y014650D01*
X003993Y014728D02*
X001183Y014728D01*
X001201Y014807D02*
X003993Y014807D01*
X003993Y014885D02*
X001223Y014885D01*
X001251Y014964D02*
X003993Y014964D01*
X003993Y015042D02*
X001279Y015042D01*
X001307Y015121D02*
X003993Y015121D01*
X003993Y015200D02*
X001335Y015200D01*
X001363Y015278D02*
X003993Y015278D01*
X003993Y015357D02*
X001391Y015357D01*
X001419Y015435D02*
X003993Y015435D01*
X003993Y015514D02*
X001447Y015514D01*
X001475Y015592D02*
X003993Y015592D01*
X003993Y015671D02*
X001503Y015671D01*
X001531Y015749D02*
X003993Y015749D01*
X003993Y015828D02*
X001559Y015828D01*
X001587Y015906D02*
X003993Y015906D01*
X003993Y015985D02*
X001615Y015985D01*
X001649Y016064D02*
X003993Y016064D01*
X003993Y016142D02*
X001687Y016142D01*
X001726Y016221D02*
X003993Y016221D01*
X003993Y016299D02*
X001765Y016299D01*
X001803Y016378D02*
X003993Y016378D01*
X003993Y016456D02*
X001842Y016456D01*
X001880Y016535D02*
X003993Y016535D01*
X003993Y016613D02*
X001919Y016613D01*
X001958Y016692D02*
X003993Y016692D01*
X003993Y016770D02*
X001996Y016770D01*
X002035Y016849D02*
X003993Y016849D01*
X003993Y016927D02*
X002074Y016927D01*
X002112Y017006D02*
X003993Y017006D01*
X003993Y017085D02*
X002151Y017085D01*
X002195Y017163D02*
X003993Y017163D01*
X003993Y017242D02*
X002245Y017242D01*
X002296Y017320D02*
X003993Y017320D01*
X003993Y017399D02*
X002346Y017399D01*
X002397Y017477D02*
X003993Y017477D01*
X003993Y017556D02*
X002447Y017556D01*
X002498Y017634D02*
X003993Y017634D01*
X003993Y017713D02*
X002548Y017713D01*
X002599Y017791D02*
X003993Y017791D01*
X003993Y017870D02*
X002649Y017870D01*
X002700Y017949D02*
X003993Y017949D01*
X003993Y018027D02*
X002750Y018027D01*
X002801Y018106D02*
X003993Y018106D01*
X003993Y018184D02*
X002855Y018184D01*
X002919Y018263D02*
X003993Y018263D01*
X003993Y018341D02*
X002983Y018341D01*
X003048Y018420D02*
X003993Y018420D01*
X003993Y018498D02*
X003112Y018498D01*
X003176Y018577D02*
X003993Y018577D01*
X003993Y018655D02*
X003240Y018655D01*
X003304Y018734D02*
X003993Y018734D01*
X003993Y018813D02*
X003369Y018813D01*
X003433Y018891D02*
X003993Y018891D01*
X003993Y018970D02*
X003497Y018970D01*
X003561Y019048D02*
X003993Y019048D01*
X004010Y019127D02*
X003628Y019127D01*
X003709Y019205D02*
X004088Y019205D01*
X004167Y019284D02*
X003789Y019284D01*
X003870Y019362D02*
X004245Y019362D01*
X004324Y019441D02*
X003951Y019441D01*
X004032Y019519D02*
X004402Y019519D01*
X004481Y019598D02*
X004113Y019598D01*
X004194Y019676D02*
X004559Y019676D01*
X004638Y019755D02*
X004274Y019755D01*
X004355Y019834D02*
X004357Y019834D01*
X004696Y019834D02*
X004716Y019834D01*
X004933Y019598D02*
X006797Y019598D01*
X006798Y019598D02*
X006697Y019556D01*
X006619Y019479D01*
X006578Y019378D01*
X006578Y019269D01*
X006619Y019168D01*
X006697Y019090D01*
X006798Y019048D01*
X006907Y019048D01*
X007008Y019090D01*
X007081Y019163D01*
X007156Y019163D01*
X007289Y019163D01*
X007382Y019257D01*
X007382Y020133D01*
X011988Y020133D01*
X011989Y020132D01*
X012055Y020133D01*
X012119Y020133D01*
X012120Y020135D01*
X012348Y020139D01*
X012417Y020070D01*
X012518Y020028D01*
X012627Y020028D01*
X012728Y020070D01*
X012806Y020148D01*
X018398Y020148D01*
X018307Y020226D02*
X012838Y020226D01*
X012847Y020249D02*
X012847Y020358D01*
X012806Y020459D01*
X012728Y020536D01*
X012627Y020578D01*
X012518Y020578D01*
X012417Y020536D01*
X012339Y020459D01*
X012051Y020453D01*
X007156Y020453D01*
X007063Y020360D01*
X007063Y020227D01*
X007063Y019502D01*
X007008Y019556D01*
X006907Y019598D01*
X006798Y019598D01*
X006908Y019598D02*
X007063Y019598D01*
X007063Y019676D02*
X005012Y019676D01*
X005090Y019755D02*
X007063Y019755D01*
X007063Y019834D02*
X005169Y019834D01*
X005248Y019912D02*
X007063Y019912D01*
X007063Y019991D02*
X005326Y019991D01*
X005405Y020069D02*
X007063Y020069D01*
X007063Y020148D02*
X005483Y020148D01*
X005562Y020226D02*
X007063Y020226D01*
X007063Y020305D02*
X005640Y020305D01*
X005719Y020383D02*
X007086Y020383D01*
X007223Y020293D02*
X012053Y020293D01*
X012573Y020303D01*
X012847Y020305D02*
X018217Y020305D01*
X018120Y020383D02*
X012837Y020383D01*
X012803Y020462D02*
X018005Y020462D01*
X017890Y020540D02*
X012719Y020540D01*
X012426Y020540D02*
X006639Y020540D01*
X006681Y020619D02*
X017775Y020619D01*
X017661Y020698D02*
X006697Y020698D01*
X006694Y020776D02*
X017546Y020776D01*
X017431Y020855D02*
X006662Y020855D01*
X006592Y020933D02*
X017316Y020933D01*
X017201Y021012D02*
X015917Y021012D01*
X015996Y021090D02*
X017073Y021090D01*
X016924Y021169D02*
X016074Y021169D01*
X016153Y021247D02*
X016775Y021247D01*
X016626Y021326D02*
X016604Y021326D01*
X016314Y021634D02*
X016474Y021952D01*
X016314Y021634D02*
X015823Y021143D01*
X013693Y021143D01*
X013068Y021768D01*
X012691Y021954D02*
X012404Y021954D01*
X012404Y021955D02*
X012355Y022004D01*
X012299Y022044D01*
X012237Y022076D01*
X012171Y022097D01*
X012108Y022107D01*
X012108Y021708D01*
X012028Y021708D01*
X012028Y021628D01*
X011629Y021628D01*
X011639Y021565D01*
X011660Y021499D01*
X011692Y021437D01*
X011733Y021381D01*
X011781Y021332D01*
X011838Y021292D01*
X011899Y021260D01*
X011965Y021239D01*
X012028Y021229D01*
X012028Y021628D01*
X012108Y021628D01*
X012108Y021229D01*
X012171Y021239D01*
X012237Y021260D01*
X012299Y021292D01*
X012355Y021332D01*
X012404Y021381D01*
X012444Y021437D01*
X012476Y021499D01*
X012497Y021565D01*
X012507Y021628D01*
X012108Y021628D01*
X012108Y021708D01*
X012507Y021708D01*
X012497Y021771D01*
X012476Y021837D01*
X012444Y021899D01*
X012404Y021955D01*
X012456Y021876D02*
X012658Y021876D01*
X012648Y021797D02*
X012489Y021797D01*
X012506Y021719D02*
X012648Y021719D01*
X012666Y021640D02*
X012108Y021640D01*
X012108Y021562D02*
X012028Y021562D01*
X012028Y021640D02*
X011470Y021640D01*
X011488Y021684D02*
X011424Y021530D01*
X011306Y021412D01*
X011152Y021348D01*
X010985Y021348D01*
X010830Y021412D01*
X010712Y021530D01*
X010648Y021684D01*
X010648Y021852D01*
X010712Y022006D01*
X010830Y022124D01*
X010985Y022188D01*
X011152Y022188D01*
X011306Y022124D01*
X011424Y022006D01*
X011488Y021852D01*
X011488Y021684D01*
X011488Y021719D02*
X011631Y021719D01*
X011629Y021708D02*
X012028Y021708D01*
X012028Y022107D01*
X011965Y022097D01*
X011899Y022076D01*
X011838Y022044D01*
X011781Y022004D01*
X011733Y021955D01*
X011692Y021899D01*
X011660Y021837D01*
X011639Y021771D01*
X011629Y021708D01*
X011647Y021797D02*
X011488Y021797D01*
X011478Y021876D02*
X011680Y021876D01*
X011732Y021954D02*
X011446Y021954D01*
X011397Y022033D02*
X011822Y022033D01*
X012028Y022033D02*
X012108Y022033D01*
X012108Y021954D02*
X012028Y021954D01*
X012028Y021876D02*
X012108Y021876D01*
X012108Y021797D02*
X012028Y021797D01*
X012028Y021719D02*
X012108Y021719D01*
X012108Y021483D02*
X012028Y021483D01*
X012028Y021404D02*
X012108Y021404D01*
X012108Y021326D02*
X012028Y021326D01*
X012028Y021247D02*
X012108Y021247D01*
X012197Y021247D02*
X013362Y021247D01*
X013284Y021326D02*
X012346Y021326D01*
X012421Y021404D02*
X012848Y021404D01*
X012759Y021483D02*
X012468Y021483D01*
X012496Y021562D02*
X012699Y021562D01*
X012739Y022033D02*
X012315Y022033D01*
X012818Y022111D02*
X011319Y022111D01*
X010818Y022111D02*
X009344Y022111D01*
X009355Y022104D02*
X009299Y022144D01*
X009237Y022176D01*
X009171Y022197D01*
X009108Y022207D01*
X009108Y021808D01*
X009028Y021808D01*
X009028Y021728D01*
X008629Y021728D01*
X008639Y021665D01*
X008660Y021599D01*
X008692Y021537D01*
X008733Y021481D01*
X008781Y021432D01*
X008838Y021392D01*
X008899Y021360D01*
X008965Y021339D01*
X009028Y021329D01*
X009028Y021728D01*
X009108Y021728D01*
X009108Y021329D01*
X009171Y021339D01*
X009237Y021360D01*
X009299Y021392D01*
X009355Y021432D01*
X009404Y021481D01*
X009444Y021537D01*
X009476Y021599D01*
X009497Y021665D01*
X009507Y021728D01*
X009108Y021728D01*
X009108Y021808D01*
X009507Y021808D01*
X009497Y021871D01*
X009476Y021937D01*
X009444Y021999D01*
X009404Y022055D01*
X009355Y022104D01*
X009420Y022033D02*
X009851Y022033D01*
X009830Y022024D02*
X009712Y021906D01*
X009648Y021752D01*
X009648Y021584D01*
X009712Y021430D01*
X009830Y021312D01*
X009985Y021248D01*
X010152Y021248D01*
X010306Y021312D01*
X010424Y021430D01*
X010488Y021584D01*
X010488Y021752D01*
X010424Y021906D01*
X010306Y022024D01*
X010152Y022088D01*
X009985Y022088D01*
X009830Y022024D01*
X009760Y021954D02*
X009467Y021954D01*
X009496Y021876D02*
X009700Y021876D01*
X009667Y021797D02*
X009108Y021797D01*
X009108Y021719D02*
X009028Y021719D01*
X009028Y021797D02*
X008018Y021797D01*
X008065Y021876D02*
X008641Y021876D01*
X008639Y021871D02*
X008629Y021808D01*
X009028Y021808D01*
X009028Y022207D01*
X008965Y022197D01*
X008899Y022176D01*
X008838Y022144D01*
X008781Y022104D01*
X008733Y022055D01*
X008692Y021999D01*
X008660Y021937D01*
X008639Y021871D01*
X008669Y021954D02*
X008093Y021954D01*
X008140Y022033D02*
X008717Y022033D01*
X008792Y022111D02*
X008381Y022111D01*
X008623Y022190D02*
X008943Y022190D01*
X009028Y022190D02*
X009108Y022190D01*
X009108Y022111D02*
X009028Y022111D01*
X009028Y022033D02*
X009108Y022033D01*
X009108Y021954D02*
X009028Y021954D01*
X009028Y021876D02*
X009108Y021876D01*
X009108Y021640D02*
X009028Y021640D01*
X009028Y021562D02*
X009108Y021562D01*
X009108Y021483D02*
X009028Y021483D01*
X009028Y021404D02*
X009108Y021404D01*
X009316Y021404D02*
X009738Y021404D01*
X009690Y021483D02*
X009405Y021483D01*
X009457Y021562D02*
X009658Y021562D01*
X009648Y021640D02*
X009489Y021640D01*
X009506Y021719D02*
X009648Y021719D01*
X009816Y021326D02*
X006982Y021326D01*
X007060Y021404D02*
X008820Y021404D01*
X008731Y021483D02*
X007115Y021483D01*
X007148Y021562D02*
X008679Y021562D01*
X008647Y021640D02*
X007789Y021640D01*
X007766Y021719D02*
X007852Y021719D01*
X007819Y021797D02*
X007733Y021797D01*
X007700Y021876D02*
X007787Y021876D01*
X007940Y021719D02*
X008630Y021719D01*
X009193Y022190D02*
X014479Y022190D01*
X014285Y022033D02*
X015016Y022033D01*
X015024Y021954D02*
X014376Y021954D01*
X014437Y021876D02*
X015056Y021876D01*
X015102Y021797D02*
X014469Y021797D01*
X014488Y021719D02*
X015181Y021719D01*
X015346Y021640D02*
X014488Y021640D01*
X014479Y021562D02*
X015952Y021562D01*
X015940Y021640D02*
X015525Y021640D01*
X015691Y021719D02*
X015825Y021719D01*
X015936Y021483D02*
X014446Y021483D01*
X014399Y021404D02*
X015857Y021404D01*
X015779Y021326D02*
X014320Y021326D01*
X013816Y021326D02*
X013736Y021326D01*
X013738Y021404D02*
X013658Y021404D01*
X013690Y021483D02*
X013579Y021483D01*
X013501Y021562D02*
X013658Y021562D01*
X013648Y021640D02*
X013470Y021640D01*
X013488Y021719D02*
X013648Y021719D01*
X013667Y021797D02*
X013488Y021797D01*
X013478Y021876D02*
X013700Y021876D01*
X013760Y021954D02*
X013446Y021954D01*
X013397Y022033D02*
X013851Y022033D01*
X013882Y022347D02*
X009279Y022347D01*
X009667Y022426D02*
X013482Y022426D01*
X013319Y022111D02*
X014778Y022111D01*
X014180Y022268D02*
X008892Y022268D01*
X007543Y021640D02*
X007162Y021640D01*
X007310Y021719D02*
X007392Y021719D01*
X006503Y021326D02*
X006470Y021326D01*
X006339Y021247D02*
X011939Y021247D01*
X011790Y021326D02*
X010320Y021326D01*
X010399Y021404D02*
X010848Y021404D01*
X010759Y021483D02*
X010446Y021483D01*
X010479Y021562D02*
X010699Y021562D01*
X010666Y021640D02*
X010488Y021640D01*
X010488Y021719D02*
X010648Y021719D01*
X010648Y021797D02*
X010469Y021797D01*
X010437Y021876D02*
X010658Y021876D01*
X010691Y021954D02*
X010376Y021954D01*
X010285Y022033D02*
X010739Y022033D01*
X011006Y022583D02*
X012003Y022583D01*
X012936Y022504D02*
X010091Y022504D01*
X011437Y021562D02*
X011640Y021562D01*
X011669Y021483D02*
X011377Y021483D01*
X011288Y021404D02*
X011716Y021404D01*
X012342Y020462D02*
X006534Y020462D01*
X006311Y020462D02*
X005797Y020462D01*
X005876Y020540D02*
X006206Y020540D01*
X006423Y020713D02*
X005823Y020713D01*
X004153Y019043D01*
X004153Y011923D01*
X004403Y011673D01*
X005563Y011673D01*
X005573Y011683D01*
X006492Y011665D02*
X017291Y011665D01*
X017291Y011744D02*
X006492Y011744D01*
X006492Y011822D02*
X017291Y011822D01*
X017291Y011901D02*
X006492Y011901D01*
X006492Y011979D02*
X017325Y011979D01*
X017291Y012058D02*
X006492Y012058D01*
X006492Y012136D02*
X017291Y012136D01*
X017291Y012215D02*
X006492Y012215D01*
X006492Y012293D02*
X017291Y012293D01*
X017291Y012372D02*
X014560Y012372D01*
X014558Y012370D02*
X014636Y012448D01*
X014677Y012549D01*
X014677Y012647D01*
X014698Y012638D01*
X014807Y012638D01*
X014908Y012680D01*
X014986Y012758D01*
X014994Y012778D01*
X015652Y012778D01*
X015722Y012848D01*
X015722Y013361D01*
X015652Y013431D01*
X014962Y013431D01*
X014892Y013361D01*
X014892Y013153D01*
X014807Y013188D01*
X014698Y013188D01*
X014597Y013146D01*
X014519Y013069D01*
X014478Y012968D01*
X014478Y012870D01*
X014457Y012878D01*
X014348Y012878D01*
X014247Y012836D01*
X014169Y012759D01*
X014128Y012658D01*
X014128Y012549D01*
X014169Y012448D01*
X014247Y012370D01*
X014348Y012328D01*
X014457Y012328D01*
X014558Y012370D01*
X014637Y012451D02*
X019756Y012451D01*
X019787Y012420D02*
X019888Y012378D01*
X019997Y012378D01*
X020098Y012420D01*
X020176Y012498D01*
X020217Y012599D01*
X020217Y012708D01*
X020176Y012809D01*
X020098Y012886D01*
X019997Y012928D01*
X019888Y012928D01*
X019787Y012886D01*
X019709Y012809D01*
X019668Y012708D01*
X019668Y012599D01*
X019709Y012498D01*
X019787Y012420D01*
X019696Y012529D02*
X014669Y012529D01*
X014677Y012608D02*
X019668Y012608D01*
X019668Y012686D02*
X014914Y012686D01*
X014989Y012765D02*
X019691Y012765D01*
X019743Y012843D02*
X019025Y012843D01*
X019029Y012848D02*
X019029Y013361D01*
X018959Y013431D01*
X018269Y013431D01*
X018199Y013361D01*
X018199Y012848D01*
X018269Y012778D01*
X018959Y012778D01*
X019029Y012848D01*
X019029Y012922D02*
X019872Y012922D01*
X020013Y012922D02*
X020312Y012922D01*
X020288Y012982D02*
X020349Y012835D01*
X020461Y012722D01*
X020608Y012661D01*
X020767Y012661D01*
X020914Y012722D01*
X021027Y012835D01*
X021088Y012982D01*
X021088Y013141D01*
X021027Y013288D01*
X020914Y013400D01*
X020767Y013461D01*
X020608Y013461D01*
X020461Y013400D01*
X020349Y013288D01*
X020288Y013141D01*
X020288Y012982D01*
X020288Y013000D02*
X019029Y013000D01*
X019029Y013079D02*
X020288Y013079D01*
X020294Y013157D02*
X019029Y013157D01*
X019029Y013236D02*
X020327Y013236D01*
X020375Y013314D02*
X019029Y013314D01*
X018997Y013393D02*
X020454Y013393D01*
X020922Y013393D02*
X021141Y013393D01*
X021063Y013472D02*
X014160Y013472D01*
X014176Y013488D02*
X014217Y013589D01*
X014217Y013698D01*
X014176Y013799D01*
X014098Y013876D01*
X013997Y013918D01*
X013888Y013918D01*
X013787Y013876D01*
X013709Y013799D01*
X013668Y013698D01*
X013668Y013589D01*
X013709Y013488D01*
X013787Y013410D01*
X013888Y013368D01*
X013997Y013368D01*
X014098Y013410D01*
X014176Y013488D01*
X014201Y013550D02*
X020990Y013550D01*
X020957Y013629D02*
X014217Y013629D01*
X014214Y013707D02*
X020925Y013707D01*
X020892Y013786D02*
X014181Y013786D01*
X014110Y013864D02*
X016305Y013864D01*
X016267Y013880D02*
X016368Y013838D01*
X016477Y013838D01*
X016578Y013880D01*
X016656Y013958D01*
X016697Y014059D01*
X016697Y014168D01*
X016656Y014269D01*
X016578Y014346D01*
X016477Y014388D01*
X016368Y014388D01*
X016267Y014346D01*
X016189Y014269D01*
X016148Y014168D01*
X016148Y014059D01*
X016189Y013958D01*
X016267Y013880D01*
X016204Y013943D02*
X013142Y013943D01*
X013136Y013928D02*
X013177Y014029D01*
X013177Y014138D01*
X013136Y014239D01*
X013058Y014316D01*
X012957Y014358D01*
X012848Y014358D01*
X012747Y014316D01*
X012669Y014239D01*
X012628Y014138D01*
X012628Y014029D01*
X012669Y013928D01*
X012747Y013850D01*
X012848Y013808D01*
X012957Y013808D01*
X013058Y013850D01*
X013136Y013928D01*
X013072Y013864D02*
X013775Y013864D01*
X013704Y013786D02*
X004312Y013786D01*
X004312Y013864D02*
X012733Y013864D01*
X012663Y013943D02*
X004312Y013943D01*
X004312Y014021D02*
X012631Y014021D01*
X012628Y014100D02*
X004312Y014100D01*
X004312Y014178D02*
X012644Y014178D01*
X012687Y014257D02*
X004312Y014257D01*
X004312Y014336D02*
X012793Y014336D01*
X013012Y014336D02*
X016256Y014336D01*
X016184Y014257D02*
X013118Y014257D01*
X013161Y014178D02*
X016152Y014178D01*
X016148Y014100D02*
X013177Y014100D01*
X013174Y014021D02*
X016163Y014021D01*
X016540Y013864D02*
X020879Y013864D01*
X020879Y013943D02*
X016641Y013943D01*
X016682Y014021D02*
X020879Y014021D01*
X020879Y014100D02*
X016697Y014100D01*
X016693Y014178D02*
X020905Y014178D01*
X020938Y014257D02*
X016661Y014257D01*
X016589Y014336D02*
X020970Y014336D01*
X021015Y014414D02*
X019382Y014414D01*
X019348Y014380D02*
X019426Y014458D01*
X019467Y014559D01*
X019467Y014668D01*
X019426Y014769D01*
X019348Y014846D01*
X019247Y014888D01*
X019138Y014888D01*
X019037Y014846D01*
X018959Y014769D01*
X018918Y014668D01*
X018918Y014559D01*
X018959Y014458D01*
X019037Y014380D01*
X019138Y014338D01*
X019247Y014338D01*
X019348Y014380D01*
X019440Y014493D02*
X021093Y014493D01*
X021172Y014571D02*
X019467Y014571D01*
X019467Y014650D02*
X021313Y014650D01*
X021908Y014807D02*
X019388Y014807D01*
X019443Y014728D02*
X021932Y014728D01*
X021952Y014650D02*
X021955Y014650D01*
X021885Y014885D02*
X019254Y014885D01*
X019131Y014885D02*
X004312Y014885D01*
X004312Y014807D02*
X018997Y014807D01*
X018942Y014728D02*
X004312Y014728D01*
X004312Y014650D02*
X018918Y014650D01*
X018918Y014571D02*
X004312Y014571D01*
X004312Y014493D02*
X018945Y014493D01*
X019003Y014414D02*
X004312Y014414D01*
X004312Y014964D02*
X021862Y014964D01*
X021839Y015042D02*
X004312Y015042D01*
X004312Y015121D02*
X021816Y015121D01*
X021793Y015200D02*
X012142Y015200D01*
X012168Y015210D02*
X012246Y015288D01*
X012287Y015389D01*
X012287Y015498D01*
X012246Y015599D01*
X012168Y015676D01*
X012067Y015718D01*
X011958Y015718D01*
X011857Y015676D01*
X011779Y015599D01*
X011738Y015498D01*
X011738Y015389D01*
X011779Y015288D01*
X011857Y015210D01*
X011958Y015168D01*
X012067Y015168D01*
X012168Y015210D01*
X012236Y015278D02*
X021770Y015278D01*
X021747Y015357D02*
X012274Y015357D01*
X012287Y015435D02*
X012629Y015435D01*
X012617Y015440D02*
X012718Y015398D01*
X012827Y015398D01*
X012928Y015440D01*
X013006Y015518D01*
X013047Y015619D01*
X013047Y015728D01*
X013006Y015829D01*
X012928Y015906D01*
X021526Y015906D01*
X021560Y015828D02*
X013006Y015828D01*
X013039Y015749D02*
X021593Y015749D01*
X021626Y015671D02*
X013047Y015671D01*
X013037Y015592D02*
X021659Y015592D01*
X021692Y015514D02*
X013002Y015514D01*
X012916Y015435D02*
X021724Y015435D01*
X021493Y015985D02*
X014863Y015985D01*
X014847Y015978D02*
X014948Y016020D01*
X015026Y016098D01*
X015067Y016199D01*
X015067Y016308D01*
X015026Y016409D01*
X014948Y016486D01*
X014847Y016528D01*
X014738Y016528D01*
X014637Y016486D01*
X014559Y016409D01*
X014518Y016308D01*
X014518Y016199D01*
X014559Y016098D01*
X014637Y016020D01*
X014738Y015978D01*
X014847Y015978D01*
X014722Y015985D02*
X011405Y015985D01*
X011386Y015938D02*
X011427Y016039D01*
X011427Y016148D01*
X011386Y016249D01*
X011308Y016326D01*
X011207Y016368D01*
X011098Y016368D01*
X010997Y016326D01*
X010919Y016249D01*
X010878Y016148D01*
X010878Y016039D01*
X010919Y015938D01*
X010997Y015860D01*
X011098Y015818D01*
X011207Y015818D01*
X011308Y015860D01*
X011386Y015938D01*
X011354Y015906D02*
X012617Y015906D01*
X012539Y015829D01*
X012498Y015728D01*
X012498Y015619D01*
X012539Y015518D01*
X012617Y015440D01*
X012543Y015514D02*
X012281Y015514D01*
X012249Y015592D02*
X012508Y015592D01*
X012498Y015671D02*
X012174Y015671D01*
X011851Y015671D02*
X004312Y015671D01*
X004312Y015749D02*
X012506Y015749D01*
X012539Y015828D02*
X011230Y015828D01*
X011075Y015828D02*
X004312Y015828D01*
X004312Y015906D02*
X010951Y015906D01*
X010900Y015985D02*
X004312Y015985D01*
X004312Y016064D02*
X004928Y016064D01*
X004905Y016086D02*
X004975Y016016D01*
X006170Y016016D01*
X006240Y016086D01*
X006240Y017281D01*
X006170Y017351D01*
X004975Y017351D01*
X004905Y017281D01*
X004905Y016086D01*
X004905Y016142D02*
X004312Y016142D01*
X004312Y016221D02*
X004905Y016221D01*
X004905Y016299D02*
X004312Y016299D01*
X004312Y016378D02*
X004905Y016378D01*
X004905Y016456D02*
X004312Y016456D01*
X004312Y016535D02*
X004905Y016535D01*
X004905Y016613D02*
X004312Y016613D01*
X004312Y016692D02*
X004905Y016692D01*
X004905Y016770D02*
X004312Y016770D01*
X004312Y016849D02*
X004905Y016849D01*
X004905Y016927D02*
X004312Y016927D01*
X004312Y017006D02*
X004905Y017006D01*
X004905Y017085D02*
X004312Y017085D01*
X004312Y017163D02*
X004905Y017163D01*
X004905Y017242D02*
X004312Y017242D01*
X004312Y017320D02*
X004945Y017320D01*
X004312Y017399D02*
X020780Y017399D01*
X020735Y017477D02*
X004312Y017477D01*
X004312Y017556D02*
X020691Y017556D01*
X020647Y017634D02*
X004312Y017634D01*
X004312Y017713D02*
X020593Y017713D01*
X020536Y017791D02*
X004312Y017791D01*
X004312Y017870D02*
X018449Y017870D01*
X018260Y017949D02*
X004312Y017949D01*
X004312Y018027D02*
X018110Y018027D01*
X018032Y018106D02*
X004312Y018106D01*
X004312Y018184D02*
X017953Y018184D01*
X017882Y018263D02*
X004312Y018263D01*
X004312Y018341D02*
X017850Y018341D01*
X017817Y018420D02*
X004312Y018420D01*
X004312Y018498D02*
X017785Y018498D01*
X017753Y018577D02*
X004312Y018577D01*
X004312Y018655D02*
X017753Y018655D01*
X017753Y018734D02*
X004312Y018734D01*
X004312Y018813D02*
X017753Y018813D01*
X017753Y018891D02*
X004312Y018891D01*
X004312Y018970D02*
X017769Y018970D01*
X017801Y019048D02*
X008316Y019048D01*
X008308Y019040D02*
X008386Y019118D01*
X008427Y019219D01*
X008427Y019328D01*
X008386Y019429D01*
X008308Y019506D01*
X008207Y019548D01*
X008098Y019548D01*
X007997Y019506D01*
X007919Y019429D01*
X007878Y019328D01*
X007878Y019219D01*
X007919Y019118D01*
X007997Y019040D01*
X008098Y018998D01*
X008207Y018998D01*
X008308Y019040D01*
X008389Y019127D02*
X017834Y019127D01*
X017866Y019205D02*
X008422Y019205D01*
X008427Y019284D02*
X017914Y019284D01*
X017993Y019362D02*
X008413Y019362D01*
X008374Y019441D02*
X018071Y019441D01*
X018166Y019519D02*
X008277Y019519D01*
X008028Y019519D02*
X007382Y019519D01*
X007382Y019441D02*
X007931Y019441D01*
X007892Y019362D02*
X007382Y019362D01*
X007382Y019284D02*
X007878Y019284D01*
X007883Y019205D02*
X007331Y019205D01*
X007223Y019323D02*
X007223Y020293D01*
X007382Y020069D02*
X012419Y020069D01*
X012726Y020069D02*
X018489Y020069D01*
X018579Y019991D02*
X007382Y019991D01*
X007382Y019912D02*
X018670Y019912D01*
X018761Y019834D02*
X007382Y019834D01*
X007382Y019755D02*
X018851Y019755D01*
X018942Y019676D02*
X007382Y019676D01*
X007382Y019598D02*
X018356Y019598D01*
X018929Y019598D02*
X019032Y019598D01*
X019451Y019127D02*
X019475Y019127D01*
X019484Y019048D02*
X019547Y019048D01*
X019516Y018970D02*
X019619Y018970D01*
X019691Y018891D02*
X019532Y018891D01*
X019532Y018813D02*
X019763Y018813D01*
X019835Y018734D02*
X019532Y018734D01*
X019532Y018655D02*
X019907Y018655D01*
X019965Y018577D02*
X019532Y018577D01*
X019500Y018498D02*
X020022Y018498D01*
X020079Y018420D02*
X019468Y018420D01*
X019435Y018341D02*
X020136Y018341D01*
X020193Y018263D02*
X019403Y018263D01*
X019332Y018184D02*
X020250Y018184D01*
X020307Y018106D02*
X019253Y018106D01*
X019175Y018027D02*
X020364Y018027D01*
X020422Y017949D02*
X019025Y017949D01*
X018835Y017870D02*
X020479Y017870D01*
X020824Y017320D02*
X018645Y017320D01*
X018678Y017306D02*
X018577Y017348D01*
X018468Y017348D01*
X018367Y017306D01*
X018289Y017229D01*
X018248Y017128D01*
X018248Y017019D01*
X018289Y016918D01*
X018367Y016840D01*
X018468Y016798D01*
X018577Y016798D01*
X018678Y016840D01*
X018756Y016918D01*
X018797Y017019D01*
X018797Y017128D01*
X018756Y017229D01*
X018678Y017306D01*
X018743Y017242D02*
X020868Y017242D01*
X020913Y017163D02*
X018783Y017163D01*
X018797Y017085D02*
X020957Y017085D01*
X021001Y017006D02*
X018792Y017006D01*
X018760Y016927D02*
X021046Y016927D01*
X021090Y016849D02*
X018687Y016849D01*
X018358Y016849D02*
X011641Y016849D01*
X011668Y016860D02*
X011746Y016938D01*
X011787Y017039D01*
X011787Y017148D01*
X011746Y017249D01*
X011668Y017326D01*
X011567Y017368D01*
X011458Y017368D01*
X011357Y017326D01*
X011279Y017249D01*
X011238Y017148D01*
X011238Y017140D01*
X011217Y017148D01*
X011108Y017148D01*
X011007Y017106D01*
X010929Y017029D01*
X010888Y016928D01*
X010888Y016819D01*
X010929Y016718D01*
X011007Y016640D01*
X011108Y016598D01*
X011217Y016598D01*
X011318Y016640D01*
X011396Y016718D01*
X011437Y016819D01*
X011437Y016827D01*
X011458Y016818D01*
X011567Y016818D01*
X011668Y016860D01*
X011736Y016927D02*
X018285Y016927D01*
X018253Y017006D02*
X011774Y017006D01*
X011787Y017085D02*
X018248Y017085D01*
X018262Y017163D02*
X011781Y017163D01*
X011749Y017242D02*
X018302Y017242D01*
X018400Y017320D02*
X011675Y017320D01*
X011350Y017320D02*
X006200Y017320D01*
X006240Y017242D02*
X011276Y017242D01*
X011244Y017163D02*
X006240Y017163D01*
X006240Y017085D02*
X010985Y017085D01*
X010920Y017006D02*
X006240Y017006D01*
X006240Y016927D02*
X010888Y016927D01*
X010888Y016849D02*
X006240Y016849D01*
X006240Y016770D02*
X010907Y016770D01*
X010955Y016692D02*
X006240Y016692D01*
X006240Y016613D02*
X011072Y016613D01*
X011253Y016613D02*
X021223Y016613D01*
X021261Y016535D02*
X013996Y016535D01*
X013987Y016538D02*
X013878Y016538D01*
X013777Y016496D01*
X013699Y016419D01*
X013658Y016318D01*
X013658Y016209D01*
X013699Y016108D01*
X013777Y016030D01*
X013878Y015988D01*
X013987Y015988D01*
X014088Y016030D01*
X014166Y016108D01*
X014207Y016209D01*
X014207Y016318D01*
X014166Y016419D01*
X014088Y016496D01*
X013987Y016538D01*
X013869Y016535D02*
X006240Y016535D01*
X006240Y016456D02*
X013736Y016456D01*
X013682Y016378D02*
X006240Y016378D01*
X006240Y016299D02*
X010969Y016299D01*
X010908Y016221D02*
X006240Y016221D01*
X006240Y016142D02*
X010878Y016142D01*
X010878Y016064D02*
X006217Y016064D01*
X004312Y015592D02*
X011777Y015592D01*
X011744Y015514D02*
X004312Y015514D01*
X004312Y015435D02*
X011738Y015435D01*
X011751Y015357D02*
X004312Y015357D01*
X004312Y015278D02*
X011789Y015278D01*
X011883Y015200D02*
X004312Y015200D01*
X004312Y013707D02*
X013671Y013707D01*
X013668Y013629D02*
X004312Y013629D01*
X004312Y013550D02*
X013683Y013550D01*
X013725Y013472D02*
X004312Y013472D01*
X004312Y013393D02*
X013828Y013393D01*
X014057Y013393D02*
X014924Y013393D01*
X014892Y013314D02*
X004312Y013314D01*
X004312Y013236D02*
X014892Y013236D01*
X014882Y013157D02*
X014892Y013157D01*
X014623Y013157D02*
X012459Y013157D01*
X012457Y013158D02*
X012348Y013158D01*
X012247Y013116D01*
X012169Y013039D01*
X012128Y012938D01*
X012128Y012829D01*
X012169Y012728D01*
X012247Y012650D01*
X012348Y012608D01*
X012457Y012608D01*
X012558Y012650D01*
X012636Y012728D01*
X012677Y012829D01*
X012677Y012938D01*
X012636Y013039D01*
X012558Y013116D01*
X012457Y013158D01*
X012346Y013157D02*
X011744Y013157D01*
X011717Y013168D02*
X011608Y013168D01*
X011507Y013126D01*
X011429Y013049D01*
X011388Y012948D01*
X011388Y012839D01*
X011429Y012738D01*
X011507Y012660D01*
X011608Y012618D01*
X011717Y012618D01*
X011818Y012660D01*
X011896Y012738D01*
X011937Y012839D01*
X011937Y012948D01*
X011896Y013049D01*
X011818Y013126D01*
X011717Y013168D01*
X011581Y013157D02*
X004312Y013157D01*
X004312Y013079D02*
X011459Y013079D01*
X011409Y013000D02*
X004312Y013000D01*
X004312Y012922D02*
X011388Y012922D01*
X011388Y012843D02*
X004312Y012843D01*
X004312Y012765D02*
X011418Y012765D01*
X011481Y012686D02*
X004312Y012686D01*
X004312Y012608D02*
X014128Y012608D01*
X014139Y012686D02*
X012594Y012686D01*
X012651Y012765D02*
X014175Y012765D01*
X014263Y012843D02*
X012677Y012843D01*
X012677Y012922D02*
X014478Y012922D01*
X014491Y013000D02*
X012652Y013000D01*
X012596Y013079D02*
X014529Y013079D01*
X014136Y012529D02*
X006492Y012529D01*
X006492Y012451D02*
X014168Y012451D01*
X014245Y012372D02*
X006492Y012372D01*
X006492Y011587D02*
X017314Y011587D01*
X017279Y011508D02*
X006492Y011508D01*
X006492Y011429D02*
X017271Y011429D01*
X017271Y011272D02*
X006492Y011272D01*
X006492Y011194D02*
X012864Y011194D01*
X012788Y011115D02*
X006492Y011115D01*
X006492Y011037D02*
X012755Y011037D01*
X012748Y010958D02*
X006492Y010958D01*
X006492Y010880D02*
X012760Y010880D01*
X012796Y010801D02*
X006460Y010801D01*
X006492Y011351D02*
X017599Y011351D01*
X017637Y011351D02*
X018509Y011351D01*
X018587Y011272D02*
X017965Y011272D01*
X017965Y011325D02*
X017637Y011325D01*
X017637Y011363D01*
X017965Y011363D01*
X017965Y011481D01*
X017955Y011517D01*
X017937Y011548D01*
X017911Y011575D01*
X017910Y011575D01*
X017945Y011610D01*
X017945Y011617D01*
X018242Y011617D01*
X018728Y011132D01*
X018728Y011071D01*
X018718Y011071D01*
X017945Y011071D01*
X017945Y011079D01*
X017910Y011114D01*
X017911Y011114D01*
X017937Y011140D01*
X017955Y011172D01*
X017965Y011208D01*
X017965Y011325D01*
X017965Y011429D02*
X018430Y011429D01*
X018352Y011508D02*
X017957Y011508D01*
X017922Y011587D02*
X018273Y011587D01*
X018308Y011777D02*
X019003Y011083D01*
X019248Y010958D02*
X019296Y010958D01*
X019288Y011037D02*
X019277Y011037D01*
X019277Y011115D02*
X019299Y011115D01*
X019329Y010880D02*
X019205Y010880D01*
X019256Y010801D02*
X019406Y010801D01*
X019277Y010723D02*
X020637Y010723D01*
X020648Y010723D02*
X020728Y010723D01*
X020728Y010724D02*
X020728Y010346D01*
X020648Y010346D01*
X020648Y010724D01*
X020589Y010715D01*
X020526Y010695D01*
X020467Y010665D01*
X020414Y010626D01*
X020367Y010579D01*
X020328Y010526D01*
X020298Y010467D01*
X020278Y010404D01*
X020269Y010345D01*
X020647Y010345D01*
X020647Y010265D01*
X020269Y010265D01*
X020278Y010207D01*
X020298Y010144D01*
X020328Y010085D01*
X020367Y010032D01*
X020414Y009985D01*
X020467Y009946D01*
X020526Y009916D01*
X020589Y009896D01*
X020648Y009886D01*
X020648Y010265D01*
X020728Y010265D01*
X020728Y010345D01*
X021106Y010345D01*
X021097Y010404D01*
X021077Y010467D01*
X021047Y010526D01*
X021008Y010579D01*
X020961Y010626D01*
X020908Y010665D01*
X020849Y010695D01*
X020786Y010715D01*
X020728Y010724D01*
X020739Y010723D02*
X021015Y010723D01*
X021015Y010801D02*
X019719Y010801D01*
X019796Y010880D02*
X021015Y010880D01*
X021028Y010958D02*
X020922Y010958D01*
X020914Y010951D02*
X021027Y011063D01*
X021088Y011210D01*
X021088Y011369D01*
X021027Y011516D01*
X020914Y011629D01*
X020782Y011683D01*
X020914Y011738D01*
X021027Y011850D01*
X021088Y011997D01*
X021088Y012157D01*
X021027Y012304D01*
X020914Y012416D01*
X020767Y012477D01*
X020608Y012477D01*
X020461Y012416D01*
X020349Y012304D01*
X020288Y012157D01*
X020288Y011997D01*
X020349Y011850D01*
X020461Y011738D01*
X020593Y011683D01*
X020461Y011629D01*
X020349Y011516D01*
X020288Y011369D01*
X020288Y011210D01*
X020349Y011063D01*
X020461Y010951D01*
X020608Y010890D01*
X020767Y010890D01*
X020914Y010951D01*
X021000Y011037D02*
X021060Y011037D01*
X021048Y011115D02*
X021093Y011115D01*
X021081Y011194D02*
X021140Y011194D01*
X021088Y011272D02*
X021218Y011272D01*
X021297Y011351D02*
X021088Y011351D01*
X021063Y011429D02*
X021482Y011429D01*
X021862Y011429D02*
X022325Y011429D01*
X022321Y011351D02*
X022047Y011351D01*
X022126Y011272D02*
X022316Y011272D01*
X022312Y011194D02*
X022204Y011194D01*
X022251Y011115D02*
X022307Y011115D01*
X022303Y011037D02*
X022283Y011037D01*
X022330Y011508D02*
X021030Y011508D01*
X020956Y011587D02*
X022334Y011587D01*
X022339Y011665D02*
X020826Y011665D01*
X020920Y011744D02*
X022343Y011744D01*
X022347Y011822D02*
X020998Y011822D01*
X021047Y011901D02*
X022343Y011901D01*
X022339Y011979D02*
X021963Y011979D01*
X022089Y012058D02*
X022334Y012058D01*
X022330Y012136D02*
X022167Y012136D01*
X022236Y012215D02*
X022325Y012215D01*
X022321Y012293D02*
X022268Y012293D01*
X022301Y012372D02*
X022316Y012372D01*
X021381Y011979D02*
X021080Y011979D01*
X021088Y012058D02*
X021255Y012058D01*
X021176Y012136D02*
X021088Y012136D01*
X021108Y012215D02*
X021064Y012215D01*
X021075Y012293D02*
X021031Y012293D01*
X021043Y012372D02*
X020958Y012372D01*
X021015Y012451D02*
X020831Y012451D01*
X021015Y012529D02*
X020189Y012529D01*
X020217Y012608D02*
X021015Y012608D01*
X021015Y012686D02*
X020827Y012686D01*
X020957Y012765D02*
X021042Y012765D01*
X021030Y012843D02*
X021075Y012843D01*
X021063Y012922D02*
X021107Y012922D01*
X021088Y013000D02*
X021175Y013000D01*
X021253Y013079D02*
X021088Y013079D01*
X021081Y013157D02*
X021376Y013157D01*
X021429Y013236D02*
X021048Y013236D01*
X021000Y013314D02*
X021240Y013314D01*
X020548Y012686D02*
X020217Y012686D01*
X020194Y012765D02*
X020419Y012765D01*
X020345Y012843D02*
X020142Y012843D01*
X020129Y012451D02*
X020544Y012451D01*
X020417Y012372D02*
X017945Y012372D01*
X017618Y012211D02*
X019255Y012211D01*
X019623Y011843D01*
X019623Y011093D01*
X019563Y011033D01*
X019837Y011037D02*
X020375Y011037D01*
X020327Y011115D02*
X019826Y011115D01*
X019791Y011194D02*
X020294Y011194D01*
X020288Y011272D02*
X019782Y011272D01*
X019782Y011351D02*
X020288Y011351D01*
X020313Y011429D02*
X019782Y011429D01*
X019782Y011508D02*
X020345Y011508D01*
X020419Y011587D02*
X019782Y011587D01*
X019782Y011665D02*
X020549Y011665D01*
X020455Y011744D02*
X019782Y011744D01*
X019782Y011822D02*
X020377Y011822D01*
X020328Y011901D02*
X019782Y011901D01*
X019713Y011979D02*
X020295Y011979D01*
X020288Y012058D02*
X019634Y012058D01*
X019556Y012136D02*
X020288Y012136D01*
X020312Y012215D02*
X019477Y012215D01*
X019399Y012293D02*
X020344Y012293D01*
X018728Y011115D02*
X017912Y011115D01*
X017961Y011194D02*
X018666Y011194D01*
X018785Y010911D02*
X019003Y010693D01*
X019185Y010487D02*
X020309Y010487D01*
X020280Y010408D02*
X019216Y010408D01*
X019254Y010330D02*
X020647Y010330D01*
X020648Y010408D02*
X020728Y010408D01*
X020728Y010330D02*
X021211Y010330D01*
X021133Y010408D02*
X021096Y010408D01*
X021090Y010487D02*
X021066Y010487D01*
X021057Y010565D02*
X021018Y010565D01*
X021025Y010644D02*
X020936Y010644D01*
X020728Y010644D02*
X020648Y010644D01*
X020648Y010565D02*
X020728Y010565D01*
X020728Y010487D02*
X020648Y010487D01*
X020728Y010265D02*
X021106Y010265D01*
X021097Y010207D01*
X021077Y010144D01*
X021047Y010085D01*
X021008Y010032D01*
X020961Y009985D01*
X020908Y009946D01*
X020849Y009916D01*
X020786Y009896D01*
X020728Y009886D01*
X020728Y010265D01*
X020728Y010251D02*
X020648Y010251D01*
X020648Y010173D02*
X020728Y010173D01*
X020728Y010094D02*
X020648Y010094D01*
X020648Y010016D02*
X020728Y010016D01*
X020728Y009937D02*
X020648Y009937D01*
X020485Y009937D02*
X018283Y009937D01*
X018361Y010016D02*
X018831Y010016D01*
X018993Y010243D02*
X018363Y010243D01*
X018164Y010045D01*
X017618Y010045D01*
X017926Y009859D02*
X021026Y009859D01*
X020975Y009780D02*
X017945Y009780D01*
X017618Y009612D02*
X018614Y009612D01*
X018883Y009343D01*
X019080Y009152D02*
X019259Y009152D01*
X019173Y009073D02*
X018949Y009073D01*
X019010Y008995D02*
X019139Y008995D01*
X019128Y008916D02*
X019075Y008916D01*
X018816Y009073D02*
X018259Y009073D01*
X018338Y008995D02*
X018655Y008995D01*
X018590Y008916D02*
X018416Y008916D01*
X018495Y008838D02*
X018558Y008838D01*
X018613Y008493D02*
X018983Y008493D01*
X019403Y008913D01*
X019677Y008916D02*
X019868Y008916D01*
X019868Y008918D02*
X019868Y008809D01*
X019909Y008708D01*
X019987Y008630D01*
X020088Y008588D01*
X020197Y008588D01*
X020298Y008630D01*
X020376Y008708D01*
X020417Y008809D01*
X020417Y008918D01*
X020376Y009019D01*
X020298Y009096D01*
X020197Y009138D01*
X020088Y009138D01*
X019987Y009096D01*
X019909Y009019D01*
X019868Y008918D01*
X019868Y008838D02*
X019669Y008838D01*
X019636Y008759D02*
X019888Y008759D01*
X019937Y008680D02*
X019558Y008680D01*
X019317Y008602D02*
X020055Y008602D01*
X020230Y008602D02*
X021839Y008602D01*
X021816Y008523D02*
X019239Y008523D01*
X019160Y008445D02*
X021793Y008445D01*
X021402Y008680D02*
X020348Y008680D01*
X020397Y008759D02*
X021212Y008759D01*
X021130Y008838D02*
X020417Y008838D01*
X020417Y008916D02*
X021051Y008916D01*
X020985Y008995D02*
X020386Y008995D01*
X020322Y009073D02*
X020953Y009073D01*
X020920Y009152D02*
X019546Y009152D01*
X019632Y009073D02*
X019963Y009073D01*
X019899Y008995D02*
X019666Y008995D01*
X019133Y009230D02*
X020888Y009230D01*
X020879Y009309D02*
X019157Y009309D01*
X019157Y009387D02*
X020879Y009387D01*
X020879Y009466D02*
X019129Y009466D01*
X019070Y009544D02*
X020879Y009544D01*
X020910Y009623D02*
X018829Y009623D01*
X018751Y009701D02*
X020942Y009701D01*
X020890Y009937D02*
X021105Y009937D01*
X021183Y010016D02*
X020992Y010016D01*
X021051Y010094D02*
X021341Y010094D01*
X021465Y010173D02*
X021086Y010173D01*
X021104Y010251D02*
X021290Y010251D01*
X020383Y010016D02*
X019154Y010016D01*
X019228Y010094D02*
X020324Y010094D01*
X020289Y010173D02*
X019261Y010173D01*
X019267Y010251D02*
X020271Y010251D01*
X020357Y010565D02*
X019247Y010565D01*
X019277Y010644D02*
X020439Y010644D01*
X020453Y010958D02*
X019829Y010958D01*
X018785Y010911D02*
X017618Y010911D01*
X017618Y010478D02*
X017307Y010478D01*
X017123Y010293D01*
X017123Y009133D01*
X017294Y008916D02*
X017646Y008916D01*
X017618Y009179D02*
X017927Y009179D01*
X018613Y008493D01*
X018685Y009152D02*
X018180Y009152D01*
X018102Y009230D02*
X018632Y009230D01*
X018608Y009309D02*
X018023Y009309D01*
X017904Y009387D02*
X018608Y009387D01*
X017728Y008445D02*
X016500Y008445D01*
X016398Y008523D02*
X017614Y008523D01*
X016963Y009859D02*
X015297Y009859D01*
X015277Y009937D02*
X016963Y009937D01*
X016963Y010016D02*
X015229Y010016D01*
X015111Y010094D02*
X016963Y010094D01*
X016963Y010173D02*
X011431Y010173D01*
X011478Y010251D02*
X016963Y010251D01*
X016963Y010330D02*
X011497Y010330D01*
X011497Y010408D02*
X017011Y010408D01*
X017090Y010487D02*
X011465Y010487D01*
X011399Y010565D02*
X017168Y010565D01*
X017618Y011777D02*
X018308Y011777D01*
X018203Y012843D02*
X015718Y012843D01*
X015722Y012922D02*
X018199Y012922D01*
X018199Y013000D02*
X015722Y013000D01*
X015722Y013079D02*
X018199Y013079D01*
X018199Y013157D02*
X015722Y013157D01*
X015722Y013236D02*
X018199Y013236D01*
X018199Y013314D02*
X015722Y013314D01*
X015690Y013393D02*
X018231Y013393D01*
X021460Y016064D02*
X014992Y016064D01*
X015044Y016142D02*
X021427Y016142D01*
X021394Y016221D02*
X015067Y016221D01*
X015067Y016299D02*
X021360Y016299D01*
X021327Y016378D02*
X015039Y016378D01*
X014979Y016456D02*
X021294Y016456D01*
X021179Y016692D02*
X011370Y016692D01*
X011417Y016770D02*
X021135Y016770D01*
X014606Y016456D02*
X014129Y016456D01*
X014183Y016378D02*
X014546Y016378D01*
X014518Y016299D02*
X014207Y016299D01*
X014207Y016221D02*
X014518Y016221D01*
X014541Y016142D02*
X014180Y016142D01*
X014122Y016064D02*
X014593Y016064D01*
X013743Y016064D02*
X011427Y016064D01*
X011427Y016142D02*
X013685Y016142D01*
X013658Y016221D02*
X011397Y016221D01*
X011336Y016299D02*
X013658Y016299D01*
X012928Y015906D02*
X012827Y015948D01*
X012718Y015948D01*
X012617Y015906D01*
X012209Y013079D02*
X011866Y013079D01*
X011916Y013000D02*
X012153Y013000D01*
X012128Y012922D02*
X011937Y012922D01*
X011937Y012843D02*
X012128Y012843D01*
X012154Y012765D02*
X011907Y012765D01*
X011844Y012686D02*
X012211Y012686D01*
X014611Y010094D02*
X014934Y010094D01*
X014816Y010016D02*
X014675Y010016D01*
X014707Y009937D02*
X014768Y009937D01*
X014748Y009859D02*
X014707Y009859D01*
X014687Y009780D02*
X014748Y009780D01*
X014779Y009701D02*
X014640Y009701D01*
X014938Y008052D02*
X009907Y008052D01*
X009901Y007974D02*
X014892Y007974D01*
X014892Y007895D02*
X009869Y007895D01*
X009794Y007816D02*
X014892Y007816D01*
X017951Y004046D02*
X004115Y004046D01*
X006240Y006089D02*
X020690Y006089D01*
X020734Y006167D02*
X006240Y006167D01*
X006240Y006246D02*
X020778Y006246D01*
X020823Y006324D02*
X006240Y006324D01*
X006240Y006403D02*
X020867Y006403D01*
X020911Y006481D02*
X006240Y006481D01*
X006240Y006560D02*
X020956Y006560D01*
X021000Y006638D02*
X006240Y006638D01*
X006240Y006717D02*
X021044Y006717D01*
X021089Y006795D02*
X006240Y006795D01*
X006240Y006874D02*
X021133Y006874D01*
X021178Y006952D02*
X006240Y006952D01*
X004685Y010801D02*
X001768Y010801D01*
X001958Y010880D02*
X004653Y010880D01*
X004653Y010958D02*
X002106Y010958D01*
X002185Y011037D02*
X004653Y011037D01*
X004653Y011115D02*
X002263Y011115D01*
X002333Y011194D02*
X004653Y011194D01*
X004653Y011272D02*
X002366Y011272D01*
X002398Y011351D02*
X004653Y011351D01*
X004653Y011429D02*
X002431Y011429D01*
X002462Y011508D02*
X004653Y011508D01*
X004653Y011901D02*
X004401Y011901D01*
X004323Y011979D02*
X004653Y011979D01*
X004653Y012058D02*
X004312Y012058D01*
X004312Y012136D02*
X004653Y012136D01*
X004653Y012215D02*
X004312Y012215D01*
X004312Y012293D02*
X004653Y012293D01*
X004653Y012372D02*
X004312Y012372D01*
X004312Y012451D02*
X004653Y012451D01*
X004653Y012529D02*
X004312Y012529D01*
X003993Y012529D02*
X001856Y012529D01*
X002046Y012451D02*
X003993Y012451D01*
X003993Y012372D02*
X002143Y012372D01*
X002221Y012293D02*
X003993Y012293D01*
X003993Y012215D02*
X002300Y012215D01*
X002348Y012136D02*
X003993Y012136D01*
X003993Y012058D02*
X002381Y012058D01*
X002413Y011979D02*
X003993Y011979D01*
X003993Y011901D02*
X002446Y011901D01*
X002462Y011822D02*
X004027Y011822D01*
X004106Y011744D02*
X002462Y011744D01*
X002462Y011665D02*
X004185Y011665D01*
X004263Y011587D02*
X002462Y011587D01*
X004384Y019048D02*
X007989Y019048D01*
X007916Y019127D02*
X007045Y019127D01*
X007223Y019323D02*
X006853Y019323D01*
X007045Y019519D02*
X007063Y019519D01*
X006660Y019519D02*
X004855Y019519D01*
X004776Y019441D02*
X006604Y019441D01*
X006578Y019362D02*
X004698Y019362D01*
X004619Y019284D02*
X006578Y019284D01*
X006604Y019205D02*
X004541Y019205D01*
X004462Y019127D02*
X006660Y019127D01*
X006253Y020933D02*
X005818Y020933D01*
X005949Y021012D02*
X013598Y021012D01*
X013520Y021090D02*
X006079Y021090D01*
X006209Y021169D02*
X013441Y021169D01*
X012847Y020249D02*
X012806Y020148D01*
X012339Y020459D02*
X012339Y020459D01*
X014933Y003968D02*
X018029Y003968D01*
X018108Y003889D02*
X017226Y003889D01*
X017271Y003871D02*
X017168Y003913D01*
X017057Y003913D01*
X016954Y003871D01*
X016875Y003792D01*
X016833Y003689D01*
X016833Y003578D01*
X016875Y003475D01*
X016954Y003396D01*
X017057Y003353D01*
X017168Y003353D01*
X017271Y003396D01*
X017350Y003475D01*
X017392Y003578D01*
X017392Y003689D01*
X017350Y003792D01*
X017271Y003871D01*
X017331Y003811D02*
X018254Y003811D01*
X018444Y003732D02*
X017375Y003732D01*
X017392Y003654D02*
X018577Y003654D01*
X018486Y003575D02*
X017391Y003575D01*
X017359Y003497D02*
X018395Y003497D01*
X018305Y003418D02*
X017293Y003418D01*
X016932Y003418D02*
X014933Y003418D01*
X014933Y003339D02*
X018214Y003339D01*
X018117Y003261D02*
X014933Y003261D01*
X014933Y003182D02*
X018002Y003182D01*
X017887Y003104D02*
X014933Y003104D01*
X014933Y003025D02*
X017772Y003025D01*
X017657Y002947D02*
X014933Y002947D01*
X014933Y002868D02*
X017542Y002868D01*
X017427Y002790D02*
X014933Y002790D01*
X014933Y002711D02*
X017313Y002711D01*
X017198Y002633D02*
X014933Y002633D01*
X014933Y002554D02*
X017068Y002554D01*
X016919Y002476D02*
X014933Y002476D01*
X014933Y002397D02*
X016771Y002397D01*
X016622Y002318D02*
X014933Y002318D01*
X014933Y002240D02*
X016473Y002240D01*
X016324Y002161D02*
X014933Y002161D01*
X014933Y002083D02*
X016175Y002083D01*
X016020Y002004D02*
X014933Y002004D01*
X014933Y001926D02*
X015819Y001926D01*
X015617Y001847D02*
X014933Y001847D01*
X014933Y001769D02*
X015415Y001769D01*
X015213Y001690D02*
X014933Y001690D01*
X014933Y001612D02*
X015012Y001612D01*
X014933Y003497D02*
X016866Y003497D01*
X016834Y003575D02*
X014933Y003575D01*
X014933Y003654D02*
X016833Y003654D01*
X016850Y003732D02*
X014933Y003732D01*
X014933Y003811D02*
X016894Y003811D01*
X016999Y003889D02*
X014933Y003889D01*
D20*
X014173Y005343D03*
X016453Y005453D03*
X017243Y005563D03*
X017113Y003633D03*
X016603Y003433D03*
D21*
X008002Y021273D02*
X008006Y021268D01*
X008012Y021265D01*
X008018Y021266D01*
X008024Y021269D01*
X008027Y021275D01*
X008027Y021281D01*
X008024Y021287D01*
X008018Y021290D01*
X008012Y021291D01*
X008006Y021288D01*
X008002Y021283D01*
X008003Y021273D02*
X007543Y022343D01*
M02*
